mastery/punching-parkinsons/punch-v1/data/strike-and-punch.csv

#Digilent WaveForms Oscilloscope Acquisition
#Device Name: Discovery2
#Serial Number: SN:210321A80071
#Date Time: 2019-03-02 12:19:27.780
#Sample rate: 400Hz
#Samples: 2700
#Trigger: Source: Channel 1 Type: Edge Condition: Rising Level: 0 V Hyst.: Auto HoldOff: 0 s
#Channel 1: Range: 500 mV/div Offset: -1.65 V

Time (s),Channel 1 (V)
-11.4,1.7269
-11.3975,1.73971
-11.395,1.74746
-11.3925,1.75184
-11.39,1.75589
-11.3875,1.75589
-11.385,1.74982
-11.3825,1.72724
-11.38,1.74106
-11.3775,1.74915
-11.375,1.75252
-11.3725,1.75656
-11.37,1.74982
-11.3675,1.74578
-11.365,1.74072
-11.3625,1.74443
-11.36,1.7505
-11.3575,1.7542
-11.355,1.75488
-11.3525,1.74814
-11.35,1.74476
-11.3475,1.73971
-11.345,1.74712
-11.3425,1.75252
-11.34,1.75859
-11.3375,1.75555
-11.335,1.73094
-11.3325,1.74274
-11.33,1.74207
-11.3275,1.74915
-11.325,1.75252
-11.3225,1.75656
-11.32,1.74982
-11.3175,1.74578
-11.315,1.74072
-11.3125,1.74443
-11.31,1.7505
-11.3075,1.75387
-11.305,1.75488
-11.3025,1.74814
-11.3,1.7451
-11.2975,1.73971
-11.295,1.74847
-11.2925,1.75488
-11.29,1.75521
-11.2875,1.73937
-11.285,1.74679
-11.2825,1.74308
-11.28,1.74173
-11.2775,1.74915
-11.275,1.75218
-11.2725,1.75656
-11.27,1.74982
-11.2675,1.74578
-11.265,1.74072
-11.2625,1.74443
-11.26,1.7505
-11.2575,1.75387
-11.255,1.75488
-11.2525,1.74814
-11.25,1.74476
-11.2475,1.74173
-11.245,1.75016
-11.2425,1.74544
-11.24,1.74746
-11.2375,1.75252
-11.235,1.74679
-11.2325,1.74274
-11.23,1.74173
-11.2275,1.74881
-11.225,1.75218
-11.2225,1.75623
-11.22,1.74948
-11.2175,1.74544
-11.215,1.74106
-11.2125,1.74443
-11.21,1.75016
-11.2075,1.7542
-11.205,1.75488
-11.2025,1.7478
-11.2,1.74712
-11.1975,1.74274
-11.195,1.73533
-11.1925,1.74847
-11.19,1.75521
-11.1875,1.75252
-11.185,1.74679
-11.1825,1.74274
-11.18,1.74173
-11.1775,1.74881
-11.175,1.75218
-11.1725,1.75623
-11.17,1.74948
-11.1675,1.74544
-11.165,1.74072
-11.1625,1.74409
-11.16,1.7505
-11.1575,1.75387
-11.155,1.75488
-11.1525,1.75117
-11.15,1.7478
-11.1475,1.72252
-11.145,1.74746
-11.1425,1.75151
-11.14,1.75521
-11.1375,1.75252
-11.135,1.74645
-11.1325,1.74274
-11.13,1.74139
-11.1275,1.74881
-11.125,1.75218
-11.1225,1.75623
-11.12,1.74948
-11.1175,1.74544
-11.115,1.74072
-11.1125,1.74443
-11.11,1.75016
-11.1075,1.75488
-11.105,1.75791
-11.1025,1.7505
-11.1,1.72892
-11.0975,1.73903
-11.095,1.74712
-11.0925,1.75117
-11.09,1.75488
-11.0875,1.75218
-11.085,1.74645
-11.0825,1.7424
-11.08,1.74106
-11.0775,1.74847
-11.075,1.75184
-11.0725,1.75623
-11.07,1.74948
-11.0675,1.74544
-11.065,1.74072
-11.0625,1.74375
-11.06,1.75151
-11.0575,1.75656
-11.055,1.75184
-11.0525,1.736
-11.05,1.74443
-11.0475,1.73971
-11.045,1.74679
-11.0425,1.75117
-11.04,1.75488
-11.0375,1.75218
-11.035,1.74645
-11.0325,1.7424
-11.03,1.74106
-11.0275,1.74847
-11.025,1.75184
-11.0225,1.75589
-11.02,1.74982
-11.0175,1.74544
-11.015,1.74072
-11.0125,1.74611
-11.01,1.75319
-11.0075,1.74578
-11.005,1.74814
-11.0025,1.7478
-11,1.74476
-10.9975,1.73971
-10.995,1.74645
-10.9925,1.75117
-10.99,1.75488
-10.9875,1.75218
-10.985,1.74645
-10.9825,1.7424
-10.98,1.74106
-10.9775,1.74847
-10.975,1.75184
-10.9725,1.75623
-10.97,1.74982
-10.9675,1.74544
-10.965,1.74375
-10.9625,1.74712
-10.96,1.73667
-10.9575,1.75083
-10.955,1.75488
-10.9525,1.74814
-10.95,1.74476
-10.9475,1.73971
-10.945,1.74645
-10.9425,1.75117
-10.94,1.75488
-10.9375,1.75218
-10.935,1.74645
-10.9325,1.7424
-10.93,1.74106
-10.9275,1.74814
-10.925,1.75218
-10.9225,1.75623
-10.92,1.75016
-10.9175,1.74847
-10.915,1.74375
-10.9125,1.7269
-10.91,1.75016
-10.9075,1.75353
-10.905,1.75488
-10.9025,1.7478
-10.9,1.74443
-10.8975,1.73937
-10.895,1.74645
-10.8925,1.75083
-10.89,1.75488
-10.8875,1.75218
-10.885,1.74645
-10.8825,1.7424
-10.88,1.74106
-10.8775,1.74847
-10.875,1.75184
-10.8725,1.75724
-10.87,1.75285
-10.8675,1.74611
-10.865,1.72656
-10.8625,1.74375
-10.86,1.74982
-10.8575,1.75319
-10.855,1.75454
-10.8525,1.7478
-10.85,1.74443
-10.8475,1.73903
-10.845,1.74611
-10.8425,1.75083
-10.84,1.75454
-10.8375,1.75218
-10.835,1.74611
-10.8325,1.7424
-10.83,1.74106
-10.8275,1.74814
-10.825,1.75353
-10.8225,1.75892
-10.82,1.74443
-10.8175,1.736
-10.815,1.74038
-10.8125,1.74375
-10.81,1.74982
-10.8075,1.75319
-10.805,1.75454
-10.8025,1.74746
-10.8,1.74409
-10.7975,1.73903
-10.795,1.74611
-10.7925,1.75083
-10.79,1.75454
-10.7875,1.75184
-10.785,1.74611
-10.7825,1.7424
-10.78,1.74038
-10.7775,1.75083
-10.775,1.75454
-10.7725,1.7451
-10.77,1.7451
-10.7675,1.7451
-10.765,1.74038
-10.7625,1.74342
-10.76,1.74948
-10.7575,1.75319
-10.755,1.75454
-10.7525,1.74746
-10.75,1.74409
-10.7475,1.73903
-10.745,1.74578
-10.7425,1.7505
-10.74,1.7542
-10.7375,1.75218
-10.735,1.74611
-10.7325,1.7424
-10.73,1.74375
-10.7275,1.75117
-10.725,1.736
-10.7225,1.75488
-10.72,1.74948
-10.7175,1.7451
-10.715,1.74072
-10.7125,1.74342
-10.71,1.74948
-10.7075,1.75319
-10.705,1.75454
-10.7025,1.74746
-10.7,1.74409
-10.6975,1.73903
-10.695,1.74611
-10.6925,1.7505
-10.69,1.75454
-10.6875,1.75218
-10.685,1.74679
-10.6825,1.74544
-10.68,1.74342
-10.6775,1.73229
-10.675,1.75151
-10.6725,1.75589
-10.67,1.74915
-10.6675,1.7451
-10.665,1.74038
-10.6625,1.74342
-10.66,1.74948
-10.6575,1.75285
-10.655,1.7542
-10.6525,1.74746
-10.65,1.74409
-10.6475,1.73903
-10.645,1.74578
-10.6425,1.75083
-10.64,1.75454
-10.6375,1.75353
-10.635,1.74915
-10.6325,1.74106
-10.63,1.7269
-10.6275,1.7478
-10.625,1.75184
-10.6225,1.75555
-10.62,1.74915
-10.6175,1.7451
-10.615,1.74038
-10.6125,1.74308
-10.61,1.74915
-10.6075,1.75285
-10.605,1.75454
-10.6025,1.74746
-10.6,1.74409
-10.5975,1.73903
-10.595,1.74578
-10.5925,1.7505
-10.59,1.75656
-10.5875,1.75521
-10.585,1.73903
-10.5825,1.73465
-10.58,1.74005
-10.5775,1.7478
-10.575,1.75151
-10.5725,1.75521
-10.57,1.74915
-10.5675,1.74476
-10.565,1.74005
-10.5625,1.74274
-10.56,1.74881
-10.5575,1.75252
-10.555,1.7542
-10.5525,1.74712
-10.55,1.74409
-10.5475,1.7387
-10.545,1.74544
-10.5425,1.75319
-10.54,1.75724
-10.5375,1.73903
-10.535,1.74342
-10.5325,1.74207
-10.53,1.74005
-10.5275,1.74746
-10.525,1.75117
-10.5225,1.75488
-10.52,1.74881
-10.5175,1.74443
-10.515,1.74005
-10.5125,1.7424
-10.51,1.74881
-10.5075,1.75218
-10.505,1.75387
-10.5025,1.74712
-10.5,1.74375
-10.4975,1.7387
-10.495,1.74847
-10.4925,1.75319
-10.49,1.73769
-10.4875,1.75184
-10.485,1.74578
-10.4825,1.74207
-10.48,1.73971
-10.4775,1.74712
-10.475,1.75083
-10.4725,1.75488
-10.47,1.74847
-10.4675,1.74443
-10.465,1.73971
-10.4625,1.7424
-10.46,1.74847
-10.4575,1.75218
-10.455,1.75387
-10.4525,1.74679
-10.45,1.74443
-10.4475,1.74173
-10.445,1.74746
-10.4425,1.73398
-10.44,1.75353
-10.4375,1.75151
-10.435,1.74544
-10.4325,1.74139
-10.43,1.73937
-10.4275,1.74679
-10.425,1.7505
-10.4225,1.7542
-10.42,1.74814
-10.4175,1.74409
-10.415,1.73937
-10.4125,1.74173
-10.41,1.74814
-10.4075,1.75151
-10.405,1.75319
-10.4025,1.7478
-10.4,1.74578
-10.3975,1.73431
-10.395,1.73263
-10.3925,1.74915
-10.39,1.75285
-10.3875,1.7505
-10.385,1.74443
-10.3825,1.74072
-10.38,1.73836
-10.3775,1.74578
-10.375,1.74915
-10.3725,1.75319
-10.37,1.74712
-10.3675,1.74274
-10.365,1.73769
-10.3625,1.74038
-10.36,1.74645
-10.3575,1.74948
-10.355,1.75319
-10.3525,1.74645
-10.35,1.73061
-10.3475,1.72724
-10.345,1.73971
-10.3425,1.74274
-10.34,1.74308
-10.3375,1.75319
-10.335,1.87657
-10.3325,2.20322
-10.33,1.99725
-10.3275,2.06973
-10.325,2.17726
-10.3225,2.32727
-10.32,2.37244
-10.3175,2.3357
-10.315,2.23592
-10.3125,2.16748
-10.31,2.11153
-10.3075,2.06096
-10.305,2.01377
-10.3025,1.97332
-10.3,2.00871
-10.2975,1.96624
-10.295,1.87354
-10.2925,1.85533
-10.29,1.81555
-10.2875,1.73735
-10.285,1.72454
-10.2825,1.74005
-10.28,1.76802
-10.2775,1.8078
-10.275,1.82162
-10.2725,1.85264
-10.27,1.78353
-10.2675,1.69015
-10.265,1.77005
-10.2625,1.80544
-10.26,1.83713
-10.2575,1.84724
-10.255,1.82466
-10.2525,1.82769
-10.25,1.81555
-10.2475,1.80544
-10.245,1.80106
-10.2425,1.77443
-10.24,1.78151
-10.2375,1.66622
-10.235,1.68611
-10.2325,1.71375
-10.23,1.71476
-10.2275,1.72825
-10.225,1.71072
-10.2225,1.71207
-10.22,1.72184
-10.2175,1.72454
-10.215,1.72016
-10.2125,1.70431
-10.21,1.71139
-10.2075,1.71847
-10.205,1.69656
-10.2025,1.62914
-10.2,1.67836
-10.1975,1.68206
-10.195,1.67903
-10.1925,1.70566
-10.19,1.74038
-10.1875,1.74274
-10.185,1.73364
-10.1825,1.73263
-10.18,1.70836
-10.1775,1.68948
-10.175,1.71274
-10.1725,1.7387
-10.17,1.69083
-10.1675,1.68779
-10.165,1.70263
-10.1625,1.65847
-10.16,1.67128
-10.1575,1.6706
-10.155,1.65746
-10.1525,1.63858
-10.15,1.69049
-10.1475,1.69487
-10.145,1.74308
-10.1425,1.74679
-10.14,1.69723
-10.1375,1.6824
-10.135,1.66218
-10.1325,1.69015
-10.13,1.67836
-10.1275,1.69285
-10.125,1.6942
-10.1225,1.68813
-10.12,1.68544
-10.1175,1.68645
-10.115,1.64431
-10.1125,1.68004
-10.11,1.70162
-10.1075,1.69959
-10.105,1.6915
-10.1025,1.67869
-10.1,1.67128
-10.0975,1.66116
-10.095,1.65543
-10.0925,1.66386
-10.09,1.67027
-10.0875,1.66656
-10.085,1.63319
-10.0825,1.66723
-10.08,1.76128
-10.0775,1.74847
-10.075,1.75083
-10.0725,1.77915
-10.07,1.76802
-10.0675,1.72993
-10.065,1.76364
-10.0625,1.76465
-10.06,1.76802
-10.0575,1.77173
-10.055,1.7714
-10.0525,1.75825
-10.05,1.74746
-10.0475,1.73903
-10.045,1.74409
-10.0425,1.74814
-10.04,1.74915
-10.0375,1.74814
-10.035,1.73971
-10.0325,1.73061
-10.03,1.72184
-10.0275,1.72858
-10.025,1.73701
-10.0225,1.73836
-10.02,1.68341
-10.0175,1.74746
-10.015,1.74207
-10.0125,1.74207
-10.01,1.74847
-10.0075,1.75184
-10.005,1.75454
-10.0025,1.74915
-10,1.74712
-9.9975,1.74375
-9.995,1.75252
-9.9925,1.75892
-9.99,1.76263
-9.9875,1.76061
-9.985,1.7542
-9.9825,1.75016
-9.98,1.7505
-9.9775,1.76128
-9.975,1.75589
-9.9725,1.74544
-9.97,1.76061
-9.9675,1.75623
-9.965,1.75117
-9.9625,1.75285
-9.96,1.7596
-9.9575,1.76263
-9.955,1.76398
-9.9525,1.75757
-9.95,1.75521
-9.9475,1.75117
-9.945,1.7569
-9.9425,1.76095
-9.94,1.76735
-9.9375,1.76701
-9.935,1.76398
-9.9325,1.76263
-9.93,1.76128
-9.9275,1.75252
-9.925,1.75859
-9.9225,1.76802
-9.92,1.76566
-9.9175,1.76398
-9.915,1.75791
-9.9125,1.76095
-9.91,1.76533
-9.9075,1.76735
-9.905,1.76634
-9.9025,1.76364
-9.9,1.76095
-9.8975,1.75488
-9.895,1.75926
-9.8925,1.76263
-9.89,1.76263
-9.8875,1.76095
-9.885,1.76263
-9.8825,1.75859
-9.88,1.73735
-9.8775,1.75555
-9.875,1.76162
-9.8725,1.75926
-9.87,1.75859
-9.8675,1.75791
-9.865,1.75184
-9.8625,1.75521
-9.86,1.75724
-9.8575,1.75724
-9.855,1.75454
-9.8525,1.7569
-9.85,1.75454
-9.8475,1.74881
-9.845,1.75353
-9.8425,1.75623
-9.84,1.75623
-9.8375,1.75791
-9.835,1.75656
-9.8325,1.72993
-9.83,1.74679
-9.8275,1.75083
-9.825,1.75387
-9.8225,1.75151
-9.82,1.75016
-9.8175,1.74881
-9.815,1.7424
-9.8125,1.7451
-9.81,1.7478
-9.8075,1.74915
-9.805,1.7478
-9.8025,1.74611
-9.8,1.74342
-9.7975,1.73802
-9.795,1.7424
-9.7925,1.74679
-9.79,1.74881
-9.7875,1.74578
-9.785,1.72488
-9.7825,1.73836
-9.78,1.73634
-9.7775,1.74038
-9.775,1.74342
-9.7725,1.74106
-9.77,1.74005
-9.7675,1.73802
-9.765,1.73195
-9.7625,1.73431
-9.76,1.73769
-9.7575,1.73903
-9.755,1.73769
-9.7525,1.736
-9.75,1.73364
-9.7475,1.72791
-9.745,1.73465
-9.7425,1.73903
-9.74,1.72993
-9.7375,1.72218
-9.735,1.7333
-9.7325,1.72926
-9.73,1.7269
-9.7275,1.73128
-9.725,1.73398
-9.7225,1.73195
-9.72,1.73094
-9.7175,1.72993
-9.715,1.72386
-9.7125,1.72656
-9.71,1.72926
-9.7075,1.73061
-9.705,1.72926
-9.7025,1.72858
-9.7,1.7269
-9.6975,1.7242
-9.695,1.7296
-9.6925,1.71746
-9.69,1.7215
-9.6875,1.7269
-9.685,1.72757
-9.6825,1.72319
-9.68,1.72117
-9.6775,1.72454
-9.675,1.72724
-9.6725,1.72285
-9.67,1.72386
-9.6675,1.72454
-9.665,1.7178
-9.6625,1.72083
-9.66,1.72218
-9.6575,1.72319
-9.655,1.72016
-9.6525,1.7215
-9.65,1.72353
-9.6475,1.71813
-9.645,1.70094
-9.6425,1.72049
-9.64,1.71948
-9.6375,1.71881
-9.635,1.72016
-9.6325,1.71577
-9.63,1.71409
-9.6275,1.71679
-9.625,1.71982
-9.6225,1.7151
-9.62,1.71645
-9.6175,1.71679
-9.615,1.71072
-9.6125,1.71341
-9.61,1.71544
-9.6075,1.71645
-9.605,1.71476
-9.6025,1.7178
-9.6,1.71611
-9.5975,1.68712
-9.595,1.71105
-9.5925,1.71375
-9.59,1.71207
-9.5875,1.71173
-9.585,1.71173
-9.5825,1.70802
-9.58,1.70566
-9.5775,1.70903
-9.575,1.7124
-9.5725,1.70937
-9.57,1.70937
-9.5675,1.7087
-9.565,1.70263
-9.5625,1.70532
-9.56,1.70802
-9.5575,1.71072
-9.555,1.71139
-9.5525,1.70634
-9.55,1.68881
-9.5475,1.69858
-9.545,1.70364
-9.5425,1.70634
-9.54,1.70532
-9.5375,1.70465
-9.535,1.70398
-9.5325,1.69993
-9.53,1.69723
-9.5275,1.70162
-9.525,1.70465
-9.5225,1.70195
-9.52,1.70128
-9.5175,1.7006
-9.515,1.6942
-9.5125,1.69622
-9.51,1.70162
-9.5075,1.70398
-9.505,1.69117
-9.5025,1.6851
-9.5,1.69555
-9.4975,1.68982
-9.495,1.69454
-9.4925,1.69757
-9.49,1.6969
-9.4875,1.69622
-9.485,1.69487
-9.4825,1.69117
-9.48,1.68847
-9.4775,1.69319
-9.475,1.69622
-9.4725,1.69454
-9.47,1.69386
-9.4675,1.69251
-9.465,1.68645
-9.4625,1.69184
-9.46,1.69589
-9.4575,1.67836
-9.455,1.68544
-9.4525,1.68948
-9.45,1.68746
-9.4475,1.68206
-9.445,1.68678
-9.4425,1.69015
-9.44,1.69049
-9.4375,1.68948
-9.435,1.68813
-9.4325,1.68442
-9.43,1.68206
-9.4275,1.68678
-9.425,1.69015
-9.4225,1.68948
-9.42,1.68779
-9.4175,1.68678
-9.415,1.68476
-9.4125,1.68678
-9.41,1.66454
-9.4075,1.68948
-9.405,1.68847
-9.4025,1.68611
-9.4,1.68409
-9.3975,1.67869
-9.395,1.68341
-9.3925,1.68678
-9.39,1.68746
-9.3875,1.68678
-9.385,1.6851
-9.3825,1.68173
-9.38,1.67903
-9.3775,1.68409
-9.375,1.68746
-9.3725,1.68712
-9.37,1.68645
-9.3675,1.68712
-9.365,1.68139
-9.3625,1.6588
-9.36,1.68442
-9.3575,1.68678
-9.355,1.68645
-9.3525,1.68341
-9.35,1.68105
-9.3475,1.67566
-9.345,1.68072
-9.3425,1.68409
-9.34,1.68544
-9.3375,1.68442
-9.335,1.68206
-9.3325,1.67836
-9.33,1.67532
-9.3275,1.68105
-9.325,1.68409
-9.3225,1.68611
-9.32,1.68544
-9.3175,1.67701
-9.315,1.65779
-9.3125,1.67633
-9.31,1.68105
-9.3075,1.68308
-9.305,1.68308
-9.3025,1.68004
-9.3,1.67768
-9.2975,1.67229
-9.295,1.67701
-9.2925,1.68072
-9.29,1.68206
-9.2875,1.68139
-9.285,1.67836
-9.2825,1.67499
-9.28,1.67195
-9.2775,1.67734
-9.275,1.68341
-9.2725,1.68476
-9.27,1.66892
-9.2675,1.66656
-9.265,1.67161
-9.2625,1.67364
-9.26,1.67802
-9.2575,1.68038
-9.255,1.68072
-9.2525,1.67734
-9.25,1.67532
-9.2475,1.66993
-9.245,1.67499
-9.2425,1.67903
-9.24,1.68038
-9.2375,1.67937
-9.235,1.67701
-9.2325,1.6733
-9.23,1.67027
-9.2275,1.67937
-9.225,1.68308
-9.2225,1.66352
-9.22,1.67465
-9.2175,1.67566
-9.215,1.6706
-9.2125,1.67195
-9.21,1.67667
-9.2075,1.67903
-9.205,1.6797
-9.2025,1.676
-9.2,1.67364
-9.1975,1.66824
-9.195,1.6733
-9.1925,1.67734
-9.19,1.67869
-9.1875,1.67802
-9.185,1.67465
-9.1825,1.67195
-9.18,1.67161
-9.1775,1.67768
-9.175,1.65746
-9.1725,1.67802
-9.17,1.67532
-9.1675,1.67263
-9.165,1.66723
-9.1625,1.66892
-9.16,1.67397
-9.1575,1.67633
-9.155,1.67667
-9.1525,1.67296
-9.15,1.6706
-9.1475,1.66521
-9.145,1.67027
-9.1425,1.67431
-9.14,1.676
-9.1375,1.67499
-9.135,1.67364
-9.1325,1.67229
-9.13,1.66588
-9.1275,1.6524
-9.125,1.67499
-9.1225,1.67566
-9.12,1.67296
-9.1175,1.67094
-9.115,1.66521
-9.1125,1.66723
-9.11,1.67161
-9.1075,1.67397
-9.105,1.67397
-9.1025,1.67094
-9.1,1.66858
-9.0975,1.66285
-9.095,1.66791
-9.0925,1.67161
-9.09,1.67263
-9.0875,1.67397
-9.085,1.67296
-9.0825,1.65847
-9.08,1.65071
-9.0775,1.66791
-9.075,1.67161
-9.0725,1.67195
-9.07,1.66993
-9.0675,1.66757
-9.065,1.66251
-9.0625,1.6642
-9.06,1.66858
-9.0575,1.67094
-9.055,1.67128
-9.0525,1.66824
-9.05,1.66588
-9.0475,1.66083
-9.045,1.66555
-9.0425,1.66925
-9.04,1.67397
-9.0375,1.67364
-9.035,1.65442
-9.0325,1.65577
-9.03,1.66049
-9.0275,1.66656
-9.025,1.66993
-9.0225,1.66959
-9.02,1.66824
-9.0175,1.66689
-9.015,1.66285
-9.0125,1.66521
-9.01,1.6706
-9.0075,1.67364
-9.005,1.67431
-9.0025,1.67229
-9,1.6706
-8.9975,1.66555
-8.995,1.6706
-8.9925,1.67869
-8.99,1.6797
-8.9875,1.65476
-8.985,1.67229
-8.9825,1.66892
-8.98,1.66555
-8.9775,1.67161
-8.975,1.67465
-8.9725,1.67499
-8.97,1.67263
-8.9675,1.6706
-8.965,1.66521
-8.9625,1.66656
-8.96,1.67161
-8.9575,1.67431
-8.955,1.67499
-8.9525,1.67263
-8.95,1.6706
-8.9475,1.66622
-8.945,1.67465
-8.9425,1.67836
-8.94,1.65577
-8.9375,1.67566
-8.935,1.67296
-8.9325,1.66959
-8.93,1.66656
-8.9275,1.67229
-8.925,1.676
-8.9225,1.67633
-8.92,1.67397
-8.9175,1.67229
-8.915,1.66723
-8.9125,1.66892
-8.91,1.6733
-8.9075,1.67633
-8.905,1.67633
-8.9025,1.67263
-8.9,1.67161
-8.8975,1.66791
-8.895,1.66689
-8.8925,1.65712
-8.89,1.67431
-8.8875,1.6733
-8.885,1.67027
-8.8825,1.66622
-8.88,1.66218
-8.8775,1.66656
-8.875,1.66993
-8.8725,1.67027
-8.87,1.66723
-8.8675,1.66386
-8.865,1.65779
-8.8625,1.65746
-8.86,1.66116
-8.8575,1.66285
-8.855,1.66184
-8.8525,1.6588
-8.85,1.6551
-8.8475,1.63554
-8.845,1.63757
-8.8425,1.65206
-8.84,1.64903
-8.8375,1.64229
-8.835,1.63622
-8.8325,1.63352
-8.83,1.63285
-8.8275,1.64161
-8.825,1.64734
-8.8225,1.65004
-8.82,1.64869
-8.8175,1.64667
-8.815,1.64296
-8.8125,1.64599
-8.81,1.65206
-8.8075,1.6551
-8.805,1.65948
-8.8025,1.65644
-8.8,1.63554
-8.7975,1.64296
-8.795,1.65442
-8.7925,1.66049
-8.79,1.66285
-8.7875,1.66251
-8.785,1.65948
-8.7825,1.65611
-8.78,1.65206
-8.7775,1.65779
-8.775,1.6615
-8.7725,1.66218
-8.77,1.66015
-8.7675,1.65712
-8.765,1.65206
-8.7625,1.65375
-8.76,1.65779
-8.7575,1.66386
-8.755,1.66723
-8.7525,1.64161
-8.75,1.66251
-8.7475,1.65813
-8.745,1.66285
-8.7425,1.66791
-8.74,1.67094
-8.7375,1.67161
-8.735,1.66892
-8.7325,1.66689
-8.73,1.6642
-8.7275,1.67161
-8.725,1.67566
-8.7225,1.67566
-8.72,1.67296
-8.7175,1.67128
-8.715,1.66588
-8.7125,1.66858
-8.71,1.676
-8.7075,1.67836
-8.705,1.65476
-8.7025,1.6733
-8.7,1.67195
-8.6975,1.66689
-8.695,1.67229
-8.6925,1.67667
-8.69,1.67937
-8.6875,1.67869
-8.685,1.676
-8.6825,1.67296
-8.68,1.66993
-8.6775,1.676
-8.675,1.6797
-8.6725,1.68038
-8.67,1.67836
-8.6675,1.67532
-8.665,1.67229
-8.6625,1.67532
-8.66,1.67161
-8.6575,1.66555
-8.655,1.67903
-8.6525,1.67532
-8.65,1.67195
-8.6475,1.66622
-8.645,1.67027
-8.6425,1.67431
-8.64,1.67566
-8.6375,1.67465
-8.635,1.67027
-8.6325,1.66656
-8.63,1.66319
-8.6275,1.66858
-8.625,1.67161
-8.6225,1.67027
-8.62,1.66622
-8.6175,1.6642
-8.615,1.65611
-8.6125,1.63656
-8.61,1.63723
-8.6075,1.64364
-8.605,1.64364
-8.6025,1.64262
-8.6,1.64599
-8.5975,1.63959
-8.595,1.63925
-8.5925,1.64026
-8.59,1.64397
-8.5875,1.64768
-8.585,1.64768
-8.5825,1.64734
-8.58,1.64532
-8.5775,1.65307
-8.575,1.65678
-8.5725,1.65847
-8.57,1.66184
-8.5675,1.66218
-8.565,1.6379
-8.5625,1.65746
-8.56,1.66454
-8.5575,1.66791
-8.555,1.67027
-8.5525,1.66791
-8.55,1.66689
-8.5475,1.66251
-8.545,1.66689
-8.5425,1.67128
-8.54,1.67364
-8.5375,1.67431
-8.535,1.67161
-8.5325,1.66925
-8.53,1.66521
-8.5275,1.67128
-8.525,1.67566
-8.5225,1.67937
-8.52,1.67701
-8.5175,1.65038
-8.515,1.66521
-8.5125,1.66622
-8.51,1.67027
-8.5075,1.67128
-8.505,1.67128
-8.5025,1.66757
-8.5,1.6642
-8.4975,1.65813
-8.495,1.66319
-8.4925,1.66757
-8.49,1.67094
-8.4875,1.66656
-8.485,1.66352
-8.4825,1.66015
-8.48,1.65577
-8.4775,1.66352
-8.475,1.66925
-8.4725,1.66757
-8.47,1.64431
-8.4675,1.66049
-8.465,1.65577
-8.4625,1.65543
-8.46,1.65982
-8.4575,1.66218
-8.455,1.66319
-8.4525,1.65847
-8.45,1.6551
-8.4475,1.6497
-8.445,1.65442
-8.4425,1.65813
-8.44,1.65982
-8.4375,1.65948
-8.435,1.65543
-8.4325,1.65173
-8.43,1.65038
-8.4275,1.65847
-8.425,1.6524
-8.4225,1.64734
-8.42,1.65779
-8.4175,1.65476
-8.415,1.64903
-8.4125,1.64802
-8.41,1.65139
-8.4075,1.65307
-8.405,1.6524
-8.4025,1.64667
-8.4,1.64262
-8.3975,1.63588
-8.395,1.63925
-8.3925,1.6433
-8.39,1.64599
-8.3875,1.64532
-8.385,1.6406
-8.3825,1.6406
-8.38,1.63723
-8.3775,1.62644
-8.375,1.63824
-8.3725,1.64532
-8.37,1.64296
-8.3675,1.64026
-8.365,1.63588
-8.3625,1.63656
-8.36,1.64195
-8.3575,1.64465
-8.355,1.64599
-8.3525,1.64094
-8.35,1.63757
-8.3475,1.63251
-8.345,1.63892
-8.3425,1.64498
-8.34,1.64802
-8.3375,1.64869
-8.335,1.64937
-8.3325,1.64633
-8.33,1.61802
-8.3275,1.64667
-8.325,1.65139
-8.3225,1.65442
-8.32,1.65274
-8.3175,1.65105
-8.315,1.64802
-8.3125,1.64835
-8.31,1.65341
-8.3075,1.65577
-8.305,1.65712
-8.3025,1.65173
-8.3,1.64835
-8.2975,1.64229
-8.295,1.64701
-8.2925,1.65038
-8.29,1.65274
-8.2875,1.65375
-8.285,1.64768
-8.2825,1.6197
-8.28,1.63521
-8.2775,1.64195
-8.275,1.64566
-8.2725,1.64869
-8.27,1.64599
-8.2675,1.6433
-8.265,1.63959
-8.2625,1.6406
-8.26,1.64734
-8.2575,1.65139
-8.255,1.6551
-8.2525,1.6497
-8.25,1.64701
-8.2475,1.64296
-8.245,1.64768
-8.2425,1.6551
